<?xml version="1.0" encoding="utf-8"?>
<!-- Generator: Adobe Illustrator 19.0.0, SVG Export Plug-In . SVG Version: 6.00 Build 0)  -->
<svg version="1.1" id="Layer_1" xmlns="http://www.w3.org/2000/svg" xmlns:xlink="http://www.w3.org/1999/xlink" x="0px" y="0px"
	 viewBox="-461.5 676.5 87 107" style="enable-background:new -461.5 676.5 87 107;" xml:space="preserve">
<style type="text/css">
	.st0{fill:#FFFFFF;stroke:#FFFFFF;stroke-width:3;stroke-miterlimit:10;}
</style>
<path class="st0" d="M-387.8,706l-4.2,68.1c-0.1,2.1-1.9,3.9-4,3.9h-44c-2.1,0-3.9-1.8-4-3.9l-4.2-68.1h-4l4.2,68.4
	c0.3,4.2,3.8,7.6,8,7.6h44c4.2,0,7.7-3.4,8-7.6l4.2-68.4H-387.8z"/>
<path class="st0" d="M-380,688h-76c-2.2,0-4,1.8-4,4v8c0,2.2,1.8,4,4,4h76c2.2,0,4-1.8,4-4v-8C-376,689.8-377.8,688-380,688z
	 M-380,700h-76v-8h76V700z"/>
<path class="st0" d="M-417,769.7c-0.6,0-1-0.4-1-1V711c0-0.6,0.4-1,1-1s1,0.4,1,1v57.7C-416,769.2-416.4,769.7-417,769.7z"/>
<path class="st0" d="M-402.2,769.7L-402.2,769.7c-0.6,0-1-0.5-1-1l2.2-57.7c0-0.6,0.5-1,1-1c0.6,0,1,0.5,1,1l-2.2,57.7
	C-401.2,769.2-401.6,769.7-402.2,769.7z"/>
<path class="st0" d="M-432.3,769.7c-0.5,0-1-0.4-1-1l-2.5-57.7c0-0.6,0.4-1,1-1c0.5,0,1,0.4,1,1l2.5,57.7
	C-431.3,769.2-431.7,769.6-432.3,769.7L-432.3,769.7z"/>
<path class="st0" d="M-429,686v-2c0-1.1,0.9-2,2-2h20c1.1,0,2,0.9,2,2v2h4v-2c0-3.3-2.7-6-6-6h-20c-3.3,0-6,2.7-6,6v2H-429z"/>
</svg>
