<?xml version="1.0" encoding="utf-8"?>
<!-- Generator: Adobe Illustrator 19.0.0, SVG Export Plug-In . SVG Version: 6.00 Build 0)  -->
<svg version="1.1" id="Layer_1" xmlns="http://www.w3.org/2000/svg" xmlns:xlink="http://www.w3.org/1999/xlink" x="0px" y="0px"
	 viewBox="-49 141 512 512" style="enable-background:new -49 141 512 512;" xml:space="preserve">
<style type="text/css">
	.st0{fill:#FFFFFF;stroke:#CCCCCC;stroke-width:3;stroke-miterlimit:10;}
	.st1{opacity:0.7;}
	.st2{fill:#0091EA;}
	.st3{opacity:0.2;fill:#231F20;enable-background:new    ;}
	.st4{fill:#BA334D;}
	.st5{fill:#59BBE2;enable-background:new    ;}
	.st6{fill:#FFFFFF;}
	.st7{fill:#0091EA;stroke:#0091EA;stroke-miterlimit:10;enable-background:new    ;}
	.st8{clip-path:url(#SVGID_2_);fill:#0091EA;}
	.st9{clip-path:url(#SVGID_4_);fill:#0091EA;}
	.st10{clip-path:url(#SVGID_6_);fill:#0091EA;}
	.st11{clip-path:url(#SVGID_8_);fill:#0091EA;}
	.st12{clip-path:url(#SVGID_10_);fill:#0091EA;}
	.st13{filter:url(#Adobe_OpacityMaskFilter);}
	.st14{mask:url(#SVGID_11_);fill:#FCF500;}
	.st15{fill:#FFFFFF;stroke:#FFFFFF;stroke-width:15;stroke-miterlimit:10;}
</style>
<g id="Layer_2">
	<g id="Favorite">
	</g>
	<g>
		<polygon class="st0" points="207,211.6 207,640.7 17.7,640.7 17.7,211.6 47.8,234.4 59.2,217 83,240.3 105.3,211.6 132.6,233.9 
			152.7,213.6 177.7,235.4 		"/>
		<g class="st1">
			<rect x="36.2" y="274.6" class="st2" width="153.3" height="10.2"/>
		</g>
		<g class="st1">
			<rect x="35.7" y="535.8" class="st2" width="83" height="10.2"/>
		</g>
		<g class="st1">
			<rect x="35.7" y="559.5" class="st2" width="83" height="10.2"/>
		</g>
		<g class="st1">
			<rect x="35.7" y="585.4" class="st2" width="83" height="10.2"/>
		</g>
		<g class="st1">
			<g>
				<rect x="36.2" y="495.3" class="st2" width="153.3" height="10.2"/>
			</g>
			<g>
				<rect x="36.2" y="473.3" class="st2" width="153.3" height="10.2"/>
			</g>
			<g>
				<rect x="36.2" y="451.3" class="st2" width="153.3" height="10.2"/>
			</g>
			<g>
				<rect x="36.2" y="429.3" class="st2" width="153.3" height="10.2"/>
			</g>
			<g>
				<rect x="36.2" y="407.3" class="st2" width="153.3" height="10.2"/>
			</g>
			<g>
				<rect x="36.2" y="385.3" class="st2" width="153.3" height="10.2"/>
			</g>
			<g>
				<rect x="36.2" y="363.3" class="st2" width="153.3" height="10.2"/>
			</g>
			<g>
				<rect x="36.2" y="341.3" class="st2" width="153.3" height="10.2"/>
			</g>
			<g>
				<rect x="36.2" y="319.3" class="st2" width="153.3" height="10.2"/>
			</g>
			<g>
				<rect x="36.2" y="297.3" class="st2" width="153.3" height="10.2"/>
			</g>
		</g>
		<g>
			<path class="st3" d="M237,251.4v201.7l-80.2,10.8c-11.1,1.5-21.4-7.2-23.1-19.2l-11.4-84.6l-3.2-23.7l-2.5-18.2l-3.7-27.8
				c-1.6-12.1,6.1-23.2,17.2-24.6l27.8-3.8L237,251.4z"/>
		</g>
		<g>
			<path class="st4" d="M451.2,398.2c1.6,11.6-6.2,22.4-17.3,23.9l-186.1,25.1l-82.5,11.1c-11.1,1.5-21.4-6.8-23-18.4l-11-81.6
				l-3.1-22.8l-2.4-17.5l-3.6-26.7c-1.6-11.6,6.2-22.4,17.3-23.8l27.8-3.7l111.3-15l10.5-1.4l119-16.1c11.1-1.5,21.4,6.8,23,18.4
				l17.4,128.6L451.2,398.2z"/>
			<path class="st5" d="M451.2,398.2c1.6,11.6-6.2,22.4-17.3,23.9l-186.1,25.1l-82.5,11.1c-11.1,1.5-21.4-6.8-23-18.4l-11-81.6
				l-3.1-22.8l-2.4-17.5l-3.6-26.7c-1.6-11.6,6.2-22.4,17.3-23.8l27.8-3.7l111.3-15l10.5-1.4l119-16.1c11.1-1.5,21.4,6.8,23,18.4
				l17.4,128.6L451.2,398.2z"/>
		</g>
		<path class="st6" d="M453.7,395c1.6,11.6-6.2,22.4-17.3,23.9L250.3,444l-82.5,11.1c-11.1,1.5-21.4-6.8-23-18.4l-11-81.6l-3.1-22.8
			l-2.4-17.5l-3.6-26.7c-1.6-11.6,6.2-22.4,17.3-23.8l27.8-3.7l111.3-15l10.5-1.4l119-16.1c11.1-1.5,21.4,6.8,23,18.4L451,375
			L453.7,395z"/>
		<path class="st2" d="M225.4,413.3c0.4,3.2-2.2,6.2-5.9,6.7l-49.2,6.6c-3.7,0.5-7.1-1.7-7.5-4.9l-0.6-4.8c-0.4-3.2,2.2-6.2,5.9-6.7
			l49.2-6.6c3.7-0.5,7.1,1.7,7.5,4.9L225.4,413.3z"/>
		<path class="st2" d="M295.5,403.9c0.4,3.2-2.2,6.2-5.9,6.7l-49.2,6.6c-3.7,0.5-7.1-1.7-7.5-4.9l-0.6-4.8c-0.4-3.2,2.2-6.2,5.9-6.7
			l49.2-6.6c3.7-0.5,7.1,1.7,7.5,4.9L295.5,403.9z"/>
		<path class="st2" d="M366.4,394.4c0.4,3.2-2.2,6.2-5.9,6.7l-49.2,6.6c-3.7,0.5-7.1-1.7-7.5-4.9l-0.6-4.8c-0.4-3.2,2.2-6.2,5.9-6.7
			l49.2-6.6c3.7-0.5,7.1,1.7,7.5,4.9L366.4,394.4z"/>
		<path class="st2" d="M436.8,384.9c0.4,3.2-2.2,6.2-5.9,6.7l-49.2,6.6c-3.7,0.5-7.1-1.7-7.5-4.9l-0.6-4.8c-0.4-3.2,2.2-6.2,5.9-6.7
			l49.2-6.6c3.7-0.5,7.1,1.7,7.5,4.9L436.8,384.9z"/>
		<path id="XMLID_1_" class="st7" d="M303.3,332.8c0.4,2.8-2.7,5.6-6.8,6.1l-126.4,17c-4.1,0.6-7.8-1.3-8.2-4.1l-5.3-39.7
			c-0.4-2.8,2.7-5.6,6.8-6.1l126.4-17c4.1-0.6,7.8,1.3,8.2,4.1L303.3,332.8z"/>
		<g>
			<g>
				<path id="SVGID_17_" class="st2" d="M340.7,324c1.5,11.2,11.8,19,23,17.5l27.9-3.8c11.2-1.5,19-11.8,17.5-23l-3.8-27.9
					c-1.5-11.2-11.8-19-23-17.5l-27.9,3.8c-11.2,1.5-19,11.8-17.5,23L340.7,324z"/>
			</g>
			<g>
				<g>
					<defs>
						<path id="SVGID_1_" d="M340.7,324c1.5,11.2,11.8,19,23,17.5l27.9-3.8c11.2-1.5,19-11.8,17.5-23l-3.8-27.9
							c-1.5-11.2-11.8-19-23-17.5l-27.9,3.8c-11.2,1.5-19,11.8-17.5,23L340.7,324z"/>
					</defs>
					<use xlink:href="#SVGID_1_"  style="overflow:visible;fill:#0091EA;"/>
					<clipPath id="SVGID_2_">
						<use xlink:href="#SVGID_1_"  style="overflow:visible;"/>
					</clipPath>
					<path class="st8" d="M340.7,324c1.5,11.2,11.8,19,23,17.5l27.9-3.8c11.2-1.5,19-11.8,17.5-23l-3.8-27.9
						c-1.5-11.2-11.8-19-23-17.5l-27.9,3.8c-11.2,1.5-19,11.8-17.5,23L340.7,324z"/>
				</g>
			</g>
			<g>
				<g>
					<defs>
						<path id="SVGID_3_" d="M340.7,324c1.5,11.2,11.8,19,23,17.5l27.9-3.8c11.2-1.5,19-11.8,17.5-23l-3.8-27.9
							c-1.5-11.2-11.8-19-23-17.5l-27.9,3.8c-11.2,1.5-19,11.8-17.5,23L340.7,324z"/>
					</defs>
					<use xlink:href="#SVGID_3_"  style="overflow:visible;fill:#0091EA;"/>
					<clipPath id="SVGID_4_">
						<use xlink:href="#SVGID_3_"  style="overflow:visible;"/>
					</clipPath>
					<circle class="st9" cx="340.3" cy="309.9" r="41.7"/>
				</g>
			</g>
			<g>
				<g>
					<defs>
						<path id="SVGID_5_" d="M340.7,324c1.5,11.2,11.8,19,23,17.5l27.9-3.8c11.2-1.5,19-11.8,17.5-23l-3.8-27.9
							c-1.5-11.2-11.8-19-23-17.5l-27.9,3.8c-11.2,1.5-19,11.8-17.5,23L340.7,324z"/>
					</defs>
					<use xlink:href="#SVGID_5_"  style="overflow:visible;fill:#0091EA;"/>
					<clipPath id="SVGID_6_">
						<use xlink:href="#SVGID_5_"  style="overflow:visible;"/>
					</clipPath>
					<circle class="st10" cx="406.7" cy="301.8" r="41.7"/>
				</g>
			</g>
			<g>
				<g>
					<defs>
						<path id="SVGID_7_" d="M340.7,324c1.5,11.2,11.8,19,23,17.5l27.9-3.8c11.2-1.5,19-11.8,17.5-23l-3.8-27.9
							c-1.5-11.2-11.8-19-23-17.5l-27.9,3.8c-11.2,1.5-19,11.8-17.5,23L340.7,324z"/>
					</defs>
					<use xlink:href="#SVGID_7_"  style="overflow:visible;fill:#0091EA;"/>
					<clipPath id="SVGID_8_">
						<use xlink:href="#SVGID_7_"  style="overflow:visible;"/>
					</clipPath>
					<circle class="st11" cx="369.5" cy="272.6" r="41.7"/>
				</g>
			</g>
			<g>
				<g>
					<defs>
						<path id="SVGID_9_" d="M340.7,324c1.5,11.2,11.8,19,23,17.5l27.9-3.8c11.2-1.5,19-11.8,17.5-23l-3.8-27.9
							c-1.5-11.2-11.8-19-23-17.5l-27.9,3.8c-11.2,1.5-19,11.8-17.5,23L340.7,324z"/>
					</defs>
					<use xlink:href="#SVGID_9_"  style="overflow:visible;fill:#0091EA;"/>
					<clipPath id="SVGID_10_">
						<use xlink:href="#SVGID_9_"  style="overflow:visible;"/>
					</clipPath>
					<circle class="st12" cx="377.5" cy="339" r="41.7"/>
				</g>
			</g>
		</g>
		<g>
			<defs>
				<filter id="Adobe_OpacityMaskFilter" filterUnits="userSpaceOnUse" x="139.2" y="527.3" width="43.6" height="79.5">
					<feFlood  style="flood-color:white;flood-opacity:1" result="back"/>
					<feBlend  in="SourceGraphic" in2="back" mode="normal"/>
				</filter>
			</defs>
			<mask maskUnits="userSpaceOnUse" x="139.2" y="527.3" width="43.6" height="79.5" id="SVGID_11_">
				<g class="st13">
				</g>
			</mask>
			<path class="st14" d="M166.6,527.5l-0.2,9.2c6.5,0.4,12.8,2.3,16.4,4.5l-3.1,11.3c-4-2.3-9.7-4.5-16-4.6
				c-5.5-0.1-9.4,1.9-9.5,5.8c-0.1,3.7,3,6.1,10.1,8.7c10.3,3.7,17.3,8.7,17.1,18.1c-0.2,8.6-6.3,15.1-16.8,17l-0.2,9.2l-9.5-0.2
				l0.2-8.6c-6.5-0.4-10.9-1.9-14-3.5l3-10.9c2.5,1.1,6.9,3.4,13.9,3.6c6.3,0.1,8.4-2.5,8.5-5.3c0.1-3.2-3.3-5.3-11.5-8.6
				c-11.5-4.3-16-9.8-15.9-18.5c0.2-8.6,6.5-15.9,17.7-17.6l0.2-9.9L166.6,527.5z"/>
		</g>
		<g>
			<path class="st15" d="M286.8,436.7c-52,0-93.9,42-93.9,93.9s42,93.9,93.9,93.9c52,0,93.9-42,93.9-93.9S338.8,436.7,286.8,436.7z
				 M286.8,617.2c-47.9,0-86.6-38.8-86.6-86.6s38.8-86.6,86.6-86.6s86.6,38.8,86.6,86.6C373.4,578.5,334.2,617.2,286.8,617.2z"/>
			<polygon class="st15" points="230.2,526.5 230.2,534.3 283.1,534.3 283.1,586.7 290.4,586.7 290.4,534.3 342.9,534.3 
				342.9,526.5 290.4,526.5 290.4,474.1 283.1,474.1 283.1,526.5 			"/>
		</g>
	</g>
</g>
</svg>
