<?xml version="1.0" encoding="utf-8"?>
<!-- Generator: Adobe Illustrator 19.0.0, SVG Export Plug-In . SVG Version: 6.00 Build 0)  -->
<svg version="1.1" id="Layer_1" xmlns="http://www.w3.org/2000/svg" xmlns:xlink="http://www.w3.org/1999/xlink" x="0px" y="0px"
	 viewBox="-49 141 512 512" style="enable-background:new -49 141 512 512;" xml:space="preserve">
<style type="text/css">
	.st0{fill:#FFFFFF;}
</style>
<g>
	<path class="st0" d="M200.8,315.2c13.9,0,25.1-11.3,25.1-25.1c0-13.9-11.3-25.1-25.1-25.1c-13.9,0-25.1,11.2-25.1,25.1
		C175.7,304,187,315.2,200.8,315.2z"/>
	<polygon class="st0" points="217.9,348.7 217.9,339.9 217.9,332 167.6,332 167.6,348.7 184.4,348.7 184.4,491.1 167.6,491.1 
		167.6,507.8 234.6,507.8 234.6,491.1 217.9,491.1 	"/>
	<path class="st0" d="M199.8,182C84.2,182-9.5,275.7-9.5,391.3c0,115.6,93.7,209.3,209.3,209.3s209.3-93.7,209.3-209.3
		C409.1,275.7,315.4,182,199.8,182z M199.8,583.9C93.6,583.9,7.2,497.5,7.2,391.3s86.4-192.6,192.6-192.6
		c106.2,0,192.6,86.4,192.6,192.6S306,583.9,199.8,583.9z"/>
</g>
</svg>
