<?xml version="1.0" encoding="utf-8"?>
<!-- Generator: Adobe Illustrator 19.0.0, SVG Export Plug-In . SVG Version: 6.00 Build 0)  -->
<svg version="1.1" id="Layer_1" xmlns="http://www.w3.org/2000/svg" xmlns:xlink="http://www.w3.org/1999/xlink" x="0px" y="0px"
	 viewBox="-241 333 128 128" style="enable-background:new -241 333 128 128;" xml:space="preserve">
<style type="text/css">
	.st0{fill:#FFFFFF;}
	.st1{fill:#FFFFFF;stroke:#FFFFFF;stroke-width:2;stroke-miterlimit:10;}
</style>
<path class="st0" d="M-176.6,410h-3.2c-1.8,0-3.2,1.6-3.2,3.3v2.1c0,1.3,0.7,2.4,1.8,2.9l-1.4,17.7h8.8l-1.2-17.7
	c1.1-0.5,2-1.6,2-2.9v-2.1C-173,411.6-174.9,410-176.6,410L-176.6,410z"/>
<path class="st0" d="M-131.2,415.4c-6.6-1.8-29.7-7.6-29.7-7.6s-6,31.2-13.1,31.2h-8.8c-6.4,0-11.5-27.9-13.2-31
	c0,0-23.1,5.7-29.7,7.5c-6.6,1.8-8.1,16.8-8.1,27.5c0,0,14.4,8.5,55.4,8.5c40.9,0,55.3-8.5,55.3-8.5
	C-123.1,432.3-124.5,417.2-131.2,415.4z M-229.7,440.4c0.3-14.4,3.2-20.6,5.1-21.1c4.9-1.3,19.2-4.9,26-6.6c0.2,0.9,0.5,1.8,0.7,2.7
	c4.3,16.1,7.8,27.5,15.1,27.5h8.8c5.2,0,9.1-5.5,13.1-18.4c1.4-4.4,2.4-8.8,3.1-11.9c6.9,1.8,20.8,5.3,25.6,6.6
	c1.9,0.5,4.8,6.7,5.1,21.1c-5.1,2.1-20.4,7-51.2,7C-209.2,447.4-224.6,442.5-229.7,440.4z"/>
<path class="st0" d="M-156.2,357.9c-3.1-14.3-16.8-16.5-23.4-16.5c-8.1,0-21.2,1.8-23.4,18.8c-1.7,13.1,4.4,30,8.8,35.7
	c5,6.3,9.4,9.5,15.6,9.5c5.7,0,9.6-2.8,14.9-10.4C-158.9,388-153.7,370-156.2,357.9z M-167,392.7c-5,7.3-7.9,8.6-11.6,8.6
	c-4.5,0-7.9-2.2-12.5-8c-3.5-4.5-9.6-20.2-8-32.7c1.4-10.6,7.4-15.3,19.4-15.3c15,0,18.6,9.4,19.5,13.4
	C-157.8,369.7-162.7,386.5-167,392.7z"/>
<g>
	<path class="st1" d="M-144.9,373.4c-11.4,0-20.6,9.2-20.6,20.6s9.2,20.6,20.6,20.6c11.4,0,20.6-9.2,20.6-20.6
		S-133.5,373.4-144.9,373.4z M-144.9,413c-10.5,0-19-8.5-19-19c0-10.5,8.5-19,19-19c10.5,0,19,8.5,19,19
		C-125.9,404.5-134.5,413-144.9,413z"/>
	<polygon class="st1" points="-144.1,381.6 -145.8,381.6 -145.8,393.2 -157.3,393.2 -157.3,394.8 -145.8,394.8 -145.8,406.3 
		-144.1,406.3 -144.1,394.8 -132.6,394.8 -132.6,393.2 -144.1,393.2 	"/>
</g>
</svg>
