<?xml version="1.0" encoding="utf-8"?>
<!-- Generator: Adobe Illustrator 19.0.0, SVG Export Plug-In . SVG Version: 6.00 Build 0)  -->
<svg version="1.1" id="Layer_1" xmlns="http://www.w3.org/2000/svg" xmlns:xlink="http://www.w3.org/1999/xlink" x="0px" y="0px"
	 viewBox="-724.8 1016.3 110.7 110.1" style="enable-background:new -724.8 1016.3 110.7 110.1;" xml:space="preserve">
<style type="text/css">
	.st0{fill:#FFFFFF;}
	.st1{fill:#FFFFFF;stroke:#FFFFFF;stroke-width:2;stroke-miterlimit:10;}
	.st2{fill:#FFFFFF;stroke:#FFFFFF;stroke-width:3;stroke-miterlimit:10;}
</style>
<path class="st0" d="M-667.6,1084.9h-3.2c-1.8,0-3.2,1.6-3.2,3.3v2.1c0,1.3,0.7,2.4,1.8,2.9l-1.4,17.7h8.8l-1.2-17.7
	c1.1-0.5,2-1.6,2-2.9v-2.1C-664,1086.5-665.9,1084.9-667.6,1084.9L-667.6,1084.9z"/>
<path class="st0" d="M-622.2,1090.3c-6.6-1.8-29.7-7.6-29.7-7.6s-6,31.2-13.1,31.2h-8.8c-6.4,0-11.5-27.9-13.2-31
	c0,0-23.1,5.7-29.7,7.5c-6.6,1.8-8.1,16.8-8.1,27.5c0,0,14.4,8.5,55.4,8.5c40.9,0,55.3-8.5,55.3-8.5
	C-614.1,1107.2-615.5,1092.1-622.2,1090.3z M-720.7,1115.3c0.3-14.4,3.2-20.6,5.1-21.1c4.9-1.3,19.2-4.9,26-6.6
	c0.2,0.9,0.5,1.8,0.7,2.7c4.3,16.1,7.8,27.5,15.1,27.5h8.8c5.2,0,9.1-5.5,13.1-18.4c1.4-4.4,2.4-8.8,3.1-11.9
	c6.9,1.8,20.8,5.3,25.6,6.6c1.9,0.5,4.8,6.7,5.1,21.1c-5.1,2.1-20.4,7-51.2,7C-700.2,1122.3-715.6,1117.4-720.7,1115.3z"/>
<path class="st0" d="M-647.2,1032.8c-3.1-14.3-16.8-16.5-23.4-16.5c-8.1,0-21.2,1.8-23.4,18.8c-1.7,13.1,4.4,30,8.8,35.7
	c5,6.3,9.4,9.5,15.6,9.5c5.7,0,9.6-2.8,14.9-10.4C-649.9,1062.9-644.7,1044.9-647.2,1032.8z M-658,1067.6c-5,7.3-7.9,8.6-11.6,8.6
	c-4.5,0-7.9-2.2-12.5-8c-3.5-4.5-9.6-20.2-8-32.7c1.4-10.6,7.4-15.3,19.4-15.3c15,0,18.6,9.4,19.5,13.4
	C-648.8,1044.6-653.7,1061.4-658,1067.6z"/>
<g>
	<g>
		<path class="st1" d="M-637.1,1048.1c-11.5,0-20.8,9.3-20.8,20.8s9.3,20.8,20.8,20.8c11.5,0,20.8-9.3,20.8-20.8
			S-625.5,1048.1-637.1,1048.1z M-637.1,1088.1c-10.6,0-19.2-8.6-19.2-19.2s8.6-19.2,19.2-19.2c10.6,0,19.2,8.6,19.2,19.2
			C-617.8,1079.6-626.5,1088.1-637.1,1088.1z"/>
		<rect x="-645.7" y="1068.5" class="st2" width="17.3" height="0.7"/>
	</g>
</g>
</svg>
